{  
  "menu_login_form":"1",
  "enable_top_bar":1,
  "menu_top_bar_wpml_area":"left",
  "top_bar_infotext":"<div class='currency'><select class='wcml_currency_switcher' style='display: none;'><option value='EUR'>Euro(€)</option><option value='GBP' selected='selected'>Pound(£)</option><option value='CNY'>Chinese</option><option value='IMP'>M Pound</option><option value='demo'>Just for demo</option></select></div><ul class='header-dropdown lang'><li> <a href='#'><i class='icon-globe'></i> English</a><ul><li><a href='#'> <img src='http://themepiko.com/demo/stock/default/wp-content/plugins/sitepress-multilingual-cms-old/res/flags/it.png' alt='it' width='18' height='12'>Italiano</a></li><li><a href='#'> <img src='http://themepiko.com/demo/stock/default/wp-content/plugins/sitepress-multilingual-cms-old/res/flags/fr.png' alt='fr' width='18' height='12'>Français</a></li><li><a href='#'> <img src='http://themepiko.com/demo/stock/default/wp-content/plugins/sitepress-multilingual-cms-old/res/flags/es.png' alt='es' width='18' height='12'>Español</a></li><li><a href='#'> <img src='http://themepiko.com/demo/stock/default/wp-content/plugins/sitepress-multilingual-cms-old/res/flags/de.png' alt='de' width='18' height='12'>Just for demo</a></li></ul></li></ul><ul><li><i class='fa fa-phone'></i>CALL US (+1700) 000 888</li></ul>"
}